Version:5.2.5
Toc mic 4 cam - Clasa A - standard - (alb)|4 cam clasa A|toate|alb|0|0|0|0|0|0|0
TP4101|0|GS1|0|R3522|0|
Toc mic 4 cam - Clasa A - standard - (colorat)|4 cam clasa A|toate|colorat|0|0|0|0|0|0|0
TP4101c|0|GS1|0|R3522|0|
Toc mare 4 cam - Clasa A - standard -(alb)|4 cam clasa A|toate|alb|0|0|0|0|0|0|0
TP4704|0|GS1|0|R3522|0|
Toc mare 4 cam - Clasa A - standard -(colorat)|4 cam clasa A|toate|colorat|0|0|0|0|0|0|0
TP4704c|0|GS1|0|R3522|0|
Z fer 4 cam - Clasa A - standard - (alb)|4 cam clasa A|toate|alb|0|0|0|0|0|0|2
TP4102|0|R3522|0|GS1|0|G2|0|
Z fer 4 cam - Clasa A - standard - (colorat)|4 cam clasa A|toate|colorat|0|0|0|0|0|0|2
TP4102c|0|R3522|0|GS1|0|G2|0|
Teu 4 cam - Clasa A - standard -(alb)|4 cam clasa A|toate|alb|0|0|0|0|0|0|1
TP4103|0|TP30127|2|R505/15|0|GS1|0|GS1|0|
Teu 4 cam - Clasa A - standard -(colorat)|4 cam clasa A|toate|colorat|0|0|0|0|0|0|1
TP4103c|0|TP30127|2|R505/15|0|GS1|0|GS1|0|
Toc mic 4 cam - Clasa B - Eco (alb)|4 cam clasa B|toate|alb|0|0|0|0|0|0|0
TP4101E|0|GS1|0|R3522|0|
Toc mic 4 cam - Clasa B - Eco (colorat)|4 cam clasa B|toate|colorat|0|0|0|0|0|0|0
TP4101Ec|0|GS1|0|R3522|0|
Toc mare 4 cam - Clasa B - Eco (alb)|4 cam clasa B|toate|alb|0|0|0|0|0|0|0
TP4704E|0|GS1|0|R3522|0|
Toc mare 4 cam - Clasa B - Eco (colorat)|4 cam clasa B|toate|colorat|0|0|0|0|0|0|0
TP4704Ec|0|GS1|0|R3522|0|
Z fer 4 cam - Clasa B - Eco - (alb)|4 cam clasa B|toate|alb|0|0|0|0|0|0|2
TP4102E|0|R3522|0|GS1|0|G2|0|
Z fer 4 cam - Clasa B - Eco - (colorat)|4 cam clasa B|toate|colorat|0|0|0|0|0|0|2
TP4102Ec|0|R3522|0|GS1|0|G2|0|
Teu 4 cam - Clasa B - Eco (alb)|4 cam clasa B|toate|alb|0|0|0|0|0|0|1
TP4103E|0|TP30127|2|R505/15|0|GS1|0|GS1|0|
Teu 4 cam - Clasa B - Eco (colorat)|4 cam clasa B|toate|colorat|0|0|0|0|0|0|1
TP4103Ec|0|TP30127|2|R505/15|0|GS1|0|GS1|0|
Zet usa intermediar 4 cam - Clasa A - standard - (alb)|4 cam clasa A|toate|alb|0|0|0|0|0|0|3
TP4105|0|R3535/17|0|G2|0|GS1|0|
Zet usa intermediar 4 cam - Clasa A - standard - (colorat)|4 cam clasa A|toate|colorat|0|0|0|0|0|0|3
TP4105c|0|R3535/17|0|G2|0|GS1|0|
Zet usa intermediar 4 cam - Clasa B - Eco - (alb)|4 cam clasa B|toate|alb|0|0|0|0|0|0|3
TP4105E|0|R3535/17|0|G2|0|GS1|0|
Zet usa intermediar 4 cam - Clasa B - Eco - (colorat)|4 cam clasa B|toate|colorat|0|0|0|0|0|0|3
TP4105Ec|0|R3535/17|0|G2|0|GS1|0|
Zet usa (ext) intermediar 4 cam - Clasa A - standard - (alb)|4 cam clasa A|toate|alb|0|0|0|0|0|0|3
TP4106|0|R3535/17|0|G2|0|GS1|0|
Zet usa (ext) intermediar 4 cam - Clasa A - standard - (colorat)|4 cam clasa A|toate|colorat|0|0|0|0|0|0|3
TP4106c|0|R3535/17|0|G2|0|GS1|0|
Zet usa (ext) intermediar 4 cam - Clasa B - Eco - (alb)|4 cam clasa B|toate|alb|0|0|0|0|0|0|3
TP4106E|0|R3535/17|0|G2|0|GS1|0|
Zet usa (ext) intermediar 4 cam - Clasa B - Eco - (colorat)|4 cam clasa B|toate|colorat|0|0|0|0|0|0|3
TP4106Ec|0|R3535/17|0|G2|0|GS1|0|
Zet usa 4 cam - Clasa A - standard (alb)|4 cam clasa A|toate|alb|0|0|0|0|0|0|3
TP4701|0|R3050/20|0|G2|0|GS1|0|
Zet usa 4 cam - Clasa A - standard (colorat)|4 cam clasa A|toate|colorat|0|0|0|0|0|0|3
TP4701c|0|R3050/20|0|G2|0|GS1|0|
Zet usa 4 cam - Clasa B - Eco (alb)|4 cam clasa B|toate|alb|0|0|0|0|0|0|-1
TP4701E|0|R3050/20|0|G2|0|GS1|0|
Zet usa 4 cam - Clasa B - Eco (colorat)|4 cam clasa B|toate|colorat|0|0|0|0|0|0|-1
TP4701Ec|0|R3050/20|0|G2|0|GS1|0|
Zet usa Ext 4 cam - Clasa A - standard (alb)|4 cam clasa A|toate|alb|0|0|0|0|0|0|3
TP4702|0|R3050/20|0|G2|0|GS1|0|
Zet usa Ext 4 cam - Clasa A - standard (colorat)|4 cam clasa A|toate|colorat|0|0|0|0|0|0|3
TP4702c|0|R3050/20|0|G2|0|GS1|0|
Zet usa Ext 4 cam - Clasa B - Eco (alb)|4 cam clasa B|toate|alb|0|0|0|0|0|0|3
TP4702E|0|R3050/20|0|G2|0|GS1|0|
Zet usa Ext 4 cam - Clasa B - Eco (colorat)|4 cam clasa B|toate|colorat|0|0|0|0|0|0|3
TP4702Ec|0|R3050/20|0|G2|0|GS1|0|
Inversor 4 cam B (alb)|4 cam clasa B|toate|alb|0|0|0|0|0|0|4
TP4104|0|R505/15|0|TP4605|2|GS1|0|
Inversor 4 cam A(alb)|4 cam clasa A|toate|alb|0|0|0|0|0|0|4
TP4104|0|R505/15|0|TP4605|2|GS1|0|
Inversor 4cam A (colorat)|4 cam clasa A|toate|colorat|0|0|0|0|0|0|4
TP4104c|0|R505/15|0|TP4605c|2|GS1|0|
Inversor 4cam B (colorat)|4 cam clasa B|toate|colorat|0|0|0|0|0|0|4
TP4104c|0|R505/15|0|TP4605c|2|GS1|0|
Inversor 6 cam A (alb)|6 cam clasa A|toate|alb|0|0|0|0|0|0|4
TP6104|0|TP4605-6cam|2|R505/15|0|GS1|0|
Inversor 6 cam A (colorat)|6 cam clasa A|toate|colorat|0|0|0|0|0|0|4
TP6104c|0|R505/15|0|TP4605-6camc|2|GS1|0|
Inversor 6 cam B (alb)|6 cam clasa B|toate|alb|0|0|0|0|0|0|4
TP6104|0|TP4605-6cam|2|R505/15|0|GS1|0|
Inversor 6 cam B (colorat)|6 cam clasa B|toate|colorat|0|0|0|0|0|0|4
TP6104c|0|R505/15|0|TP4605-6camc|2|GS1|0|
H legatura|toate|toate|alb|0|0|0|0|0|0|8
TP4303|0|
H legatura (colorat)|toate|toate|colorat|0|0|0|0|0|0|8
TP4303c|0|
Teava colt|toate|toate|alb|0|0|0|0|0|0|8
TP4305|0|R508/15|0|TP4306|0|TP4306|0|
Teava colt - 6cam|6 cam clasa A|toate|alb|0|0|0|0|0|0|8
TP6305|0|TP6306|0|TP6306|0|R508/15|0|
Teava colt - 6cam - colorat|6 cam clasa A|toate|colorat|0|0|0|0|0|0|8
R508/15|0|TP6305c|0|TP6306c|0|TP6306c|0|
Teava colt - colorat|toate|toate|colorat|0|0|0|0|0|0|8
TP4305c|0|R508/15|0|TP4306c|0|TP4306c|0|
Patrat colt|toate|toate|alb|0|0|0|0|0|0|8
TP4304|0|R2828/15|0|
Patrat colt - colorat|toate|toate|colorat|0|0|0|0|0|0|8
TP4304c|0|R2828/15|0|
Fara prag|toate|toate|toate|0|0|0|0|0|0|10

Prag aluminiu|toate|toate|toate|0|0|0|0|0|0|10
TP01|0|TP02|1|
Glaf interior -alb|toate|toate|alb|0|0|0|0|0|0|9

Toc 6 cam - Clasa A - standard - (alb)|6 cam clasa A|toate|alb|0|0|0|0|0|0|0
TP6101|0|GS1|0|R3522|0|
Toc 6 cam - Clasa A - standard - (colorat)|6 cam clasa A|toate|colorat|0|0|0|0|0|0|0
TP6101c|0|GS1|0|R3522|0|
Toc 6 cam - Clasa B- Eco - (alb)|6 cam clasa B|toate|alb|0|0|0|0|0|0|0
TP6101E|0|GS1|0|R3522|0|
Toc 6 cam - Clasa B- Eco - (colorat)|6 cam clasa B|toate|colorat|0|0|0|0|0|0|0
TP6101Ec|0|GS1|0|R3522|0|
Toc USA 6 cam - Clasa A - standard - (alb)|6 cam clasa A|toate|alb|0|0|0|0|0|0|0
TP6704|0|GS1|0|R3522|0|
Toc USA 6 cam - Clasa B - Eco - (alb)|6 cam clasa B|toate|alb|0|0|0|0|0|0|0
TP6704E|0|GS1|0|R3522|0|
Toc USA 6 cam - Clasa A - standard - (colorat)|6 cam clasa A|toate|colorat|0|0|0|0|0|0|0
TP6704c|0|GS1|0|R3522|0|
Toc USA 6 cam - Clasa B - Eco - (colorat)|6 cam clasa B|toate|colorat|0|0|0|0|0|0|0
TP6704c|0|GS1|0|R3522|0|
Z fer 6 cam - Clasa A - standard - (alb)|6 cam clasa A|toate|alb|0|0|0|0|0|0|2
TP6102|0|R3522|0|GS1|0|G2|0|
Z fer 6 cam - Clasa B  - Eco - (alb)|6 cam clasa B|toate|alb|0|0|0|0|0|0|2
TP6102E|0|R3522|0|GS1|0|G2|0|
Z fer 6 cam - Clasa A - standard - (colorat)|6 cam clasa A|toate|colorat|0|0|0|0|0|0|2
TP6102c|0|R3522|0|GS1|0|G2|0|
Z fer 6 cam - Clasa B - Eco - (colorat)|6 cam clasa B|toate|colorat|0|0|0|0|0|0|2
TP6102Ec|0|R3522|0|GS1|0|G2|0|
Z fer 6 cam rotunjit - Clasa A - standard - (alb)|6 cam clasa A|toate|alb|0|0|0|0|0|0|2
TP6107|0|R3522|0|GS1|0|G2|0|
Z fer 6 cam rotunjit - Clasa B - Eco - (alb)|6 cam clasa B|toate|alb|0|0|0|0|0|0|2
TP6107E|0|R3522|0|GS1|0|G2|0|
Z fer 6 cam rotunjit - Clasa A - standard - (colorat)|6 cam clasa A|toate|colorat|0|0|0|0|0|0|2
TP6107c|0|R3522|0|GS1|0|G2|0|
Z fer 6 cam rotunjit - Clasa B - Eco - (colorat)|6 cam clasa B|toate|colorat|0|0|0|0|0|0|2
TP6107Ec|0|R3522|0|GS1|0|G2|0|
Zet usa D.I. 6 cam - Clasa A - standard (alb)|6 cam clasa A|toate|alb|0|0|0|0|0|0|3
TP6701|0|R3050/20|0|G2|0|GS1|0|
Zet usa D.I. 6 cam - Clasa B - Eco (alb)|6 cam clasa B|toate|alb|0|0|0|0|0|0|3
TP6701E|0|R3050/20|0|G2|0|GS1|0|
Zet usa D.I. 6 cam - Clasa A - standard (colorat)|6 cam clasa A|toate|colorat|0|0|0|0|0|0|3
R3050/20|0|TP6701c|0|G2|0|GS1|0|
Zet usa D.I. 6 cam - Clasa B - Eco (colorat)|6 cam clasa B|toate|colorat|0|0|0|0|0|0|3
TP6701Ec|0|R3050/20|0|G2|0|GS1|0|
Zet usa D.E. 6 cam - Clasa A - standard (alb)|6 cam clasa A|toate|alb|0|0|0|0|0|0|3
TP6702|0|R3050/20|0|G2|0|GS1|0|
Zet usa D.E. 6 cam - Clasa B - Eco (alb)|6 cam clasa B|toate|alb|0|0|0|0|0|0|3
TP6702E|0|R3050/20|0|G2|0|GS1|0|
Zet usa D.E. 6 cam - Clasa A - standard (colorat)|6 cam clasa A|toate|colorat|0|0|0|0|0|0|3
TP6702c|0|R3050/20|0|G2|0|GS1|0|
Zet usa D.E. 6 cam - Clasa B - Eco (colorat)|6 cam clasa B|toate|colorat|0|0|0|0|0|0|3
TP6702Ec|0|R3050/20|0|G2|0|GS1|0|
Teu 6 cam - Clasa A - standard -(alb)|6 cam clasa A|toate|alb|0|0|0|0|0|0|1
TP6103|0|TP30127|2|R505/15|0|GS1|0|GS1|0|
Teu 6 cam - Clasa B - Eco -(alb)|6 cam clasa B|toate|alb|0|0|0|0|0|0|1
TP6103E|0|TP30127|2|R505/15|0|GS1|0|GS1|0|
Teu 6 cam - Clasa A - standard -(colorat)|6 cam clasa A|toate|colorat|0|0|0|0|0|0|1
TP6103c|0|TP30127|2|R505/15|0|GS1|0|GS1|0|
Teu 6 cam - Clasa B - Eco -(colorat)|6 cam clasa B|toate|colorat|0|0|0|0|0|0|1
TP6103Ec|0|TP30127|2|R505/15|0|GS1|0|GS1|0|
Glaf interior -colorat|toate|toate|toate|0|0|0|0|0|0|9

Glaf exterior - alb|toate|toate|alb|0|0|0|0|0|0|9

Glaf exterior - colorat|toate|toate|toate|0|0|0|0|0|0|9

