Version:5.0
Empty|any|any|any|0|0|0|0|0|0|0

Glass 6mm|6mm|any|any|0|0|0|0|0|0|1
GS6MM|0|
Float+Low-E 20mm|20mm|any|any|0|0|0|0|0|0|2
FL+LE20|0|
Float+Low-E 24mm|24mm|any|any|0|0|0|0|0|0|3
FL+LE24|0|
Panel 20mm|20mm|any|any|0|0|0|0|0|0|4
PNL20L|0|
Panel 24mm|24mm|any|any|0|0|0|0|0|0|4
PNL24L|0|
