Version:5.0
Gol|toate|toate|toate|0|0|0|0|0|0|0

Float+Float  20mm|20mm|toate|toate|0|0|0|0|0|0|2
FL+FL20|0|
LowE+Float 20mm|20mm|toate|toate|0|0|0|0|0|0|2
FL+LE20|0|
Float+Colorat 20mm|20mm|toate|toate|0|0|0|0|0|0|2
FL_CL20|0|
Float+Decorativ alb 20mm|20mm|toate|toate|0|0|0|0|0|0|2
FL+DA20|0|
Float+Decorativ bronze 20mm|20mm|toate|toate|0|0|0|0|0|0|2
FL+DB20|0|
Float+Krizet fumuriu 20mm|20mm|toate|toate|0|0|0|0|0|0|2
FL+KF20|0|
Float+Krizet 20mm|20mm|toate|toate|0|0|0|0|0|0|2
FL+KR20|0|
Float+Reflexiv 20mm|20mm|toate|toate|0|0|0|0|0|0|2
FL+RE20|0|
Float+Sablat chimic 20mm|20mm|toate|toate|0|0|0|0|0|0|2
FL+SC20|0|
Fumuriu+Fumuriu 20mm|20mm|toate|toate|0|0|0|0|0|0|2
FU+FU20|0|
Krizet+Krizet 20mm|20mm|toate|toate|0|0|0|0|0|0|2
KR+KR20|0|
LowE+Colorat 20mm|20mm|toate|toate|0|0|0|0|0|0|2
LE+CL20|0|
LowE+Decorativ alb 20mm|20mm|toate|toate|0|0|0|0|0|0|2
LE+DA20|0|
LowE+Krizet 20mm|20mm|toate|toate|0|0|0|0|0|0|2
LE+KR20|0|
LowE+LowE 20mm|20mm|toate|toate|0|0|0|0|0|0|2
LE+LE20|0|
LowE+Reflexiv 20mm|20mm|toate|toate|0|0|0|0|0|0|2
LE+RE20|0|
LowE+Sablat 20mm|20mm|toate|toate|0|0|0|0|0|0|2
LE+SB20|0|
Reflexiv+Krizet 20mm|20mm|toate|toate|0|0|0|0|0|0|2
RE+KR20|0|
Reflexiv+Reflexiv 20mm|20mm|toate|toate|0|0|0|0|0|0|2
RE+RE20|0|
Float+Float 24mm|24mm|toate|toate|0|0|0|0|0|0|2
FL+FL24|0|
Float+Krizet 24mm|24mm|toate|toate|0|0|0|0|0|0|2
FL+KR24|0|
Float+Colorat 24mm|24mm|toate|toate|0|0|0|0|0|0|2
FL+CL24|0|
Float+Decorativ alb 24mm|24mm|toate|toate|0|0|0|0|0|0|2
FL+DA24|0|
Float+Krizet fumuriu 24mm|24mm|toate|toate|0|0|0|0|0|0|2
FL+KF24|0|
Float+Reflexiv 24mm|24mm|toate|toate|0|0|0|0|0|0|2
FL+RE24|0|
Float+Sablat chimic 24mm|24mm|toate|toate|0|0|0|0|0|0|2
FL+SC24|0|
Krizet+Krizet 24mm|24mm|toate|toate|0|0|0|0|0|0|2
KR+KR24|0|
Fumuriu+Fumuriu 24mm|24mm|toate|toate|0|0|0|0|0|0|2
FU+FU24|0|
LowE+Float 24mm|24mm|toate|toate|0|0|0|0|0|0|2
FL+LE24|0|
LowE+Colorat 24mm|24mm|toate|toate|0|0|0|0|0|0|2
LE+CL24|0|
LowE+Decorativ alb 24mm|24mm|toate|toate|0|0|0|0|0|0|2
LE+DA24|0|
LowE+Decorativ bronze 24mm|24mm|toate|toate|0|0|0|0|0|0|2
LE+DB20|0|
LowE+Krizet 24mm|24mm|toate|toate|0|0|0|0|0|0|2
LE+KR24|0|
Low E+Reflexiv 24mm|24mm|toate|toate|0|0|0|0|0|0|2
LE+RE24|0|
LowE+Sablat 24mm|24mm|toate|toate|0|0|0|0|0|0|2
LE+SB24|0|
LowE+LowE 24mm|24mm|toate|toate|0|0|0|0|0|0|2
LE+LE24|0|
Reflexiv+Krizet 24mm|24mm|toate|toate|0|0|0|0|0|0|2
RE+KR24|0|
Reflexiv+Reflexiv 24mm|24mm|toate|toate|0|0|0|0|0|0|2
RE+RE24|0|
Panel alb 20mm|20mm|toate|toate|0|0|0|0|0|0|4
PNL20-1|0|
Panel laminat 20mm|20mm|toate|toate|0|0|0|0|0|0|4
PNL20L|0|
Lambriu PVC 20mm|20mm|toate|toate|0|0|0|0|0|0|5
LP10X2|0|
Panel alb 24mm|24mm|toate|toate|0|0|0|0|0|0|4
PNL24-1|0|
Panel laminat 24mm|24mm|toate|toate|0|0|0|0|0|0|4
PNL24L|0|
GS ornament 4mm|4mm|toate|toate|0|0|0|0|0|0|1
GO4MM|0|
GS float 4mm|4mm|toate|toate|0|0|0|0|0|0|1
GS4MM|0|
GS ornament 6mm|6mm|toate|toate|0|0|0|0|0|0|1
GO6MM|0|
GS float 6mm|32mm|toate|toate|0|0|0|0|0|0|3
GS6MM|0|
3Float+LowE+LowE 32mm|32mm|toate|toate|0|0|0|0|0|0|3
FL+LE+LE|0|
