Version:5.0
bagheta+ 20mm|20mm|toate|alb|0|0|0|0|0|0
6307S|0|
bagheta  laminat 20mm|20mm|toate|laminat|0|0|0|0|0|0
6307SK|0|GRN1|0|
bagheta +24mm|24mm|toate|alb|0|0|0|0|0|0
BAGT24|0|
bagheta laminat 24mm|24mm|toate|laminat|0|0|0|0|0|0
6307SK24|0|GRN1|0|
bagheta+ 32mm|32mm|toate|alb|0|0|0|0|0|0
BGA32|0|
bagheta 4mm|4mm|toate|alb|0|0|0|0|0|0
6306S|0|
bagheta laminat 4mm|4mm|toate|laminat|0|0|0|0|0|0
6306SK|0|GRN1|0|
bagheta+ 6mm|6mm|toate|alb|0|0|0|0|0|0
6306S|0|
bagheta laminat 6mm|6mm|toate|laminat|0|0|0|0|0|0
6306SK|0|GRN1|0|
