Version:5.0
balamale + cremon (alb) - simpla|Vorne|toate|alb|0|0|250|1500|250|2500|0|1|-1
KP121|1|G-ACC-18|1|
balamale + cremon (alb) - simpla ENDOW|ENDOW|toate|alb|0|0|250|1500|250|2500|0|1|-1
G-ACC-18|1|KP12111|1|
balamale + cremon (maro) - simpla|Vorne|toate|laminat|0|0|250|1500|250|2500|0|1|-1
KP121|1|G-ACC-19|1|
balamale + cremon (maro) - simpla ENDOW|ENDOW|toate|laminat|0|0|250|1500|250|2500|0|1|-1
KP12111|1|G-ACC-19|1|
batanta sus balamale + cremon (alb) - simpla|Vorne|toate|alb|0|0|250|1500|250|2500|0|3|-1
G-ACC-18|1|G-ACC-20|2|
batanta sus balamale + cremon (alb) - simpla ENDOW|ENDOW|toate|alb|0|0|250|1500|250|2500|0|3|-1
G-ACC-18|1|G-ACC-20|2|
batanta sus balamale + cremon (maro) - simpla|Vorne|toate|laminat|0|0|250|1500|250|2500|0|3|-1
G-ACC-21|1|G-ACC-21|1|G-ACC-19|1|
batanta sus balamale + cremon (maro) - simpla ENDOW|ENDOW|toate|laminat|0|0|250|1500|250|2500|0|3|-1
G-ACC-21|1|G-ACC-21|1|G-ACC-19|1|
batanta jos balamale + cremon (alb) - simpla|Vorne|toate|alb|0|0|250|1500|250|2500|0|4|-1

batanta jos balamale + cremon (alb) - simpla ENDOW|ENDOW|toate|alb|0|0|250|1500|250|2500|0|4|-1
G-ACC-20|2|G-ACC-18|1|
balamale + cremon (alb) - simpla (GEVISS)|ROTO|toate|alb|0|0|250|1500|250|2500|0|1|-1
G-ACC-18|1|
balamale + cremon (laminat) - simpla (GEVISS)|ROTO|toate|laminat|0|0|250|1500|250|2500|0|1|-1
G-ACC-19|1|
batanta sus balamale + cremon (alb) - simpla GEVISS|ROTO|toate|alb|0|0|250|1500|250|2500|0|4|-1
G-ACC-18|1|G-ACC-20|2|
batanta sus balamale + cremon (maro) - simpla GEVISS|ROTO|toate|laminat|0|0|250|1500|250|2500|0|4|-1
G-ACC-19|1|G-ACC-21|2|
batanta jos balamale + cremon (alb) - simpla GEVISS|ROTO|toate|laminat|0|0|250|1500|250|2500|0|4|-1
G-ACC-20|2|G-ACC-18|1|
batanta jos balamale + cremon (maro) - simpla GEVISS|ROTO|toate|laminat|0|0|250|1500|250|2500|0|4|-1
G-ACC-19|1|G-ACC-21|2|
batanta jos balamale + cremon (maro) - simpla|Vorne|toate|laminat|0|0|250|1500|250|2500|0|4|-1
G-ACC-19|1|G-ACC-21|2|
batanta jos balamale + cremon (maro) - simpla ENDOW|ENDOW|toate|laminat|0|0|250|1500|250|2500|0|4|-1
G-ACC-19|1|G-ACC-21|2|
balamale + cremon (alb) oscilo|Vorne|toate|alb|0|0|250|1500|250|2500|0|2|-1
KP121|1|G-ACC-18|1|
balamale + cremon (alb) oscilo ENDOW|ENDOW|toate|alb|0|0|250|1500|250|2500|0|2|-1
KP121|1|G-ACC-18|1|
balamale + cremon (maro) oscilo|Vorne|toate|laminat|0|0|250|1500|250|2500|0|2|-1
KP121|1|G-ACC-19|1|
balamale + cremon (maro) oscilo ENDOW|ENDOW|toate|laminat|0|0|250|1500|250|2500|0|2|-1
KP121|1|G-ACC-19|1|
balamale + cremon (alb) oscilo (GEVISS)|ROTO|toate|alb|0|0|250|1500|250|2500|0|2|-1
G-ACC-18|1|
balamale + cremon (laminat) oscilo GEVISS|ROTO|toate|laminat|0|0|250|1500|250|2500|0|2|-1
G-ACC-19|1|
set capace alb - Vorne|Vorne|toate|alb|0|0|0|0|0|0|0|0|-1
KP121|1|
set capace alb - ENDOW|ENDOW|toate|alb|0|0|0|0|0|0|0|0|-1
KP121|1|
set capace maro - Vorne|Vorne|toate|laminat|0|0|0|0|0|0|0|0|-1
KP121|1|
set capace maro - ENDOW|ENDOW|toate|laminat|0|0|0|0|0|0|0|0|-1
KP121|1|
fara maner - set balamale - alb - (GEVISS)|ROTO|toate|alb|0|0|0|0|0|0|0|0|-1

fara maner - set balamale - laminat - (GEVISS)|ROTO|toate|laminat|0|0|0|0|0|0|0|0|-1

maner usa + balamale elephant (alb)|Vorne|toate|alb|0|0|350|1200|1500|2500|1|1|-1
G-ACC-26|3|G-ACC-24|1|
maner usa + balamale elephant (alb) ENDOW|ENDOW|toate|alb|0|0|350|1200|1500|2500|1|1|-1
G-ACC-26|3|BTC90|1|G-ACC-11|1|G-ACC-24|1|
maner usa + balamale elephant (maro)|Vorne|toate|laminat|0|0|350|1200|1500|2500|1|1|-1
G-ACC-25|1|G-ACC-27|3|
maner usa + balamale elephant (maro) ENDOW|ENDOW|toate|laminat|0|0|350|1200|1500|2500|1|1|-1
G-ACC-25|1|G-ACC-11|1|BTC90|1|G-ACC-27|3|
maner usa + balamale elephant (alb) - GEVISS|ROTO|toate|alb|0|0|350|1200|1500|2500|1|1|-1
G-ACC-24|1|G-ACC-26|3|
maner usa + balamale elephant (maro) - GEVISS|ROTO|toate|laminat|0|0|350|1200|1500|2500|1|1|-1
G-ACC-27|3|G-ACC-25|1|
maner usa interior (alb)|Vorne|toate|alb|0|0|350|1200|1500|2500|2|1|-1
G-ACC-24|1|
maner usa interior (alb) ENDOW|ENDOW|toate|alb|0|0|350|1200|1500|2500|2|1|-1
G-ACC-24|1|
maner usa interior (alb) - (GEVISS)|ROTO|toate|alb|0|0|350|1200|1500|2500|2|1|-1
G-ACC-24|1|
maner usa interior (MARO) - (GEVISS)|ROTO|toate|laminat|0|0|350|1200|1500|2500|2|1|-1
G-ACC-25|1|
maner usa interior (maro)|Vorne|toate|laminat|0|0|350|1200|1500|2500|2|1|-1
G-ACC-25|1|
maner usa interior (maro) ENDOW|ENDOW|toate|laminat|0|0|350|1200|1500|2500|2|1|-1
G-ACC-25|1|
usa fara maner (alb) + balamale elefant (alb)|Vorne|toate|alb|0|0|350|1200|1500|2500|1|0|-1
G-ACC-26|3|G-ACC-1|2|
usa fara maner (alb) + balamale elefant (alb) ENDOW|ENDOW|toate|alb|0|0|350|1200|1500|2500|1|0|-1
G-ACC-26|3|10015|2|G-ACC-1|2|
usa fara maner (maro) + balamale elefant (maro)|Vorne|toate|laminat|0|0|350|1200|1500|2500|1|0|-1
G-ACC-27|3|G-ACC-1|2|
usa fara maner (maro) + balamale elefant (maro) ENDOW|ENDOW|toate|laminat|0|0|350|1200|1500|2500|1|0|-1
G-ACC-27|3|10015|2|G-ACC-1|2|
usa fara maner (alb) + balamale elefant (alb) - GEVISS|ROTO|toate|alb|0|0|350|1200|1500|2500|1|0|-1
G-ACC-26|3|
usa fara maner (maro) + balamale elefant (maro) GEVISS|ROTO|toate|laminat|0|0|350|1200|1500|2500|1|0|-1
G-ACC-27|3|
usa fara maner interior(alb) +balamale (alb) GEVISS|ROTO|toate|alb|0|0|350|1200|1500|2500|2|0|-1

usa fara maner interior(maro) +balamale (maro) GEVISS|ROTO|toate|alb|0|0|350|1200|1500|2500|2|0|-1

maner fer/usa balcon (alb) + maner "C"  (GEVISS)|ROTO|toate|alb|0|0|350|1200|1500|2500|3|1|-1
G-ACC-18|1|G-ACC-30|1|
maner fer/usa balcon (maro) + maner "C"  (GEVISS)|ROTO|toate|laminat|0|0|350|1200|1500|2500|3|1|-1
G-ACC-19|1|G-ACC-30|1|
usa fara maner balcon(alb) + set balamale  (alb)GEVISS|ROTO|toate|alb|0|0|350|1200|1500|2500|3|0|-1

usa fara maner balcon(maro) + set balamale (maro) GEVISS|ROTO|toate|laminat|0|0|350|1200|1500|2500|3|0|-1

usa fara maner interior(alb) + set capace (alb)|Vorne|toate|alb|0|0|350|1200|1500|2500|2|0|-1
KP121|1|10015|2|KP12111|1|G-ACC-1|2|
usa fara maner interior(alb) + set capace (alb) ENDOW|ENDOW|toate|alb|0|0|350|1200|1500|2500|2|0|-1
KP121|1|10015|2|G-ACC-1|2|10006|8|
usa fara maner balcon(alb) + set capace (alb)|Vorne|toate|alb|0|0|350|1200|1500|2500|3|0|-1
KP121|1|10015|1|10015|1|G-ACC-1|2|KP12111|1|
usa fara maner balcon(alb) + set capace (alb) ENDOW|ENDOW|toate|alb|0|0|350|1200|1500|2500|3|0|-1
KP121|1|10015|2|G-ACC-1|2|10006|8|
usa fara maner interior(maro) + set capace (maro)|Vorne|toate|laminat|0|0|350|1200|1500|2500|2|0|-1
KP121|1|G-ACC-1|2|KP12111|1|
usa fara maner interior(maro) + set capace (maro) ENDOW|ENDOW|toate|laminat|0|0|350|1200|1500|2500|2|0|-1
KP121|1|10015|2|G-ACC-1|2|10006|8|
usa fara maner balcon(maro) + set capace (maro)|Vorne|toate|laminat|0|0|350|1200|1500|2500|3|0|-1
KP121|1|KP12111|1|G-ACC-1|2|
usa fara maner balcon(maro) + set capace (maro) ENDOW|ENDOW|toate|laminat|0|0|350|1200|1500|2500|3|0|-1
KP121|1|10006|8|10015|2|G-ACC-1|2|
cremon usa balcon (alb) + maner D + set capace|Vorne|toate|alb|0|0|350|1200|1500|2500|3|1|-1
KP121|1|KP12111|1|10016|1|G-ACC-18|1|
cremon usa balcon (alb) + maner D + set capace ENDOW|ENDOW|toate|alb|0|0|350|1200|1500|2500|3|1|-1
KP121|1|KP12111|1|10016|1|G-ACC-18|1|
cremon usa balcon (maro) + maner D + set capace|Vorne|toate|laminat|0|0|350|1200|1500|2500|3|1|-1
KP121|1|KP12111|1|10016|1|G-ACC-19|1|
cremon usa balcon (maro) + maner D + set capace ENDOW|ENDOW|toate|laminat|0|0|350|1200|1500|2500|3|1|-1
KP121|1|KP12111|1|10016|1|G-ACC-19|1|
