Version:5.2.4
Bagheta GT - 24mm alb|24mm|toate|alb|0|0|0|0|0|0|
wp4120|0|
Bagheta GT - 24mm stejar|24mm|toate|stejar-mahon|0|0|0|0|0|0|
wps4120|0|
Bagheta GT -24mm - 5cam alb|24mm|5cam|alb|0|0|0|0|0|0|
WP5020|0|
Bagheta GT -24mm - 5cam -stejar/mahon|24mm|5cam|stejar-mahon|0|0|0|0|0|0|
WPS5020|0|
Bagheta GT Triplex - 32 mm alb|32mm|toate|alb|0|0|0|0|0|0|
WP5030|0|
Bagheta GT Triplex - 32 mm -stejar/mahon|32mm|toate|stejar-mahon|0|0|0|0|0|0|
WPS5030|0|
Bagheta GS|6mm|toate|alb|0|0|0|0|0|0|
wp4130|0|
Bagheta GS -stejar/mahon|6mm|toate|stejar-mahon|0|0|0|0|0|0|
wps4130|0|
