4	25
Turn-only Window (white)	
Vorne	beliebig	0	1	0	-1	beliebig	0
0	0	0	0
MNFAA	1	STCP	2	

4	55
Turn-only Window - no Lever (white)	
Vorne	beliebig	0	0	0	-1	beliebig	0
0	0	0	0
STCP	1	

4	39
Tilt&turn Window (white)	
Vorne	beliebig	0	2	0	-1	beliebig	0
0	0	0	0
MNFAA	1	

4	56
Swinging Up Window (white)	
Vorne	white	0	3	0	-1	beliebig	0
0	0	0	0
LM13A	1	MNFAA	1	

4	67
Swinging Down Window (white) 	
Vorne	white	0	4	0	-1	beliebig	0
0	0	0	0
BLFR	2	LM22A	2	MNFAA	1	

4	-672277421
Turn-only Door (white)	
Vorne	white	1	1	0	-1	beliebig	0
0	0	0	0
MNUAA	1	BLA	3	

4	38
Turn-only Door - no Lever (white)	
Vorne	white	1	0	0	-1	beliebig	0
0	0	0	0
BLA	3	

4	-652292555
Sliding Window	
beliebig	beliebig	0	5	0	-1	beliebig	0
0	0	0	0
ATODO	1	

4	-652274629
Sliding Door	
beliebig	beliebig	1	5	0	-1	beliebig	0
0	0	0	0
ATODO	1	

