Version:5.2.4
fara maner pentru oscilobatanta GEVISS|GEVISS|toate|toate|0|0|250|2200|250|2200|0|0|-1
G-ACC-3|1|G-SD6|1|G-ACC-2|1|G-ACC-5|3|G-ACC-6|2|
fara maner pentru simpla GEVISS|GEVISS|toate|toate|0|0|250|2200|250|2200|0|0|-1
G-ACC-5|3|G-SD6|1|G-ACC-1|2|G-ACC-6|2|
simpla H250:400 GEVISS|GEVISS|toate|toate|0|0|250|1500|200|400|0|1|-1
G-ACC-4|3|G-SD6|1|G-SD-300|1|
simpla H401:600 GEVISS|GEVISS|toate|toate|0|0|250|1500|401|600|0|1|-1
G-SD-400|1|G-SD6|1|G-ACC-4|3|
simpla H601:800 GEVISS|GEVISS|toate|toate|0|0|250|1500|601|800|0|1|-1
G-ACC-4|3|G-SD6|1|G-SD-600|1|
simpla H801:1000 GEVISS|GEVISS|toate|toate|0|0|250|1500|801|1000|0|1|-1
G-SD-800|1|G-SD6|1|G-ACC-4|3|
simpla H1001:1200 GEVISS|GEVISS|toate|toate|0|0|250|1500|1001|1200|0|1|-1
G-ACC-4|3|G-SD6|1|G-SD-1000|1|
simpla H1201:1400 GEVISS|GEVISS|toate|toate|0|0|250|1500|1201|1400|0|1|-1
G-SD-1200|1|G-SD6|1|G-ACC-4|3|
simpla H1401:1600 GEVISS|GEVISS|toate|toate|0|0|250|1500|1401|1600|0|1|-1
G-SD-1400|1|G-SD6|1|G-ACC-4|3|
simpla H1601:1800 GEVISS|GEVISS|toate|toate|0|0|250|1500|1601|1800|0|1|-1
G-ACC-4|3|G-SD6|1|G-SD-1600|1|
simpla H1801:2000 GEVISS|GEVISS|toate|toate|0|0|250|1500|1801|2000|0|1|-1
G-SD-1800|1|G-SD6|1|G-ACC-4|4|
simpla H2001:2200 GEVISS|GEVISS|toate|toate|0|0|250|1500|2001|2200|0|1|-1
G-ACC-4|4|G-SD6|1|G-SD-2000|1|
oscilobatanta L 350:650 H 450:700 GEVISS|GEVISS|toate|toate|0|0|350|650|451|700|0|2|-1
G-ACC-4|4|G-DD8|1|G-DD-F350-600|1|G-ISP500-700|1|
oscilobatanta L 350:650 H 701:1200 GEVISS|GEVISS|toate|toate|0|0|350|650|701|1200|0|2|-1
G-ACC-4|4|G-DD8|1|G-DD-F350-600|1|G-ISP700-1200|1|G-INCSPA - 800-1200|1|
oscilobatanta L 350:650 H 1201:1700 GEVISS|GEVISS|toate|toate|0|0|350|650|1201|1700|0|2|-1
G-ACC-4|4|G-DD8|1|G-DD-F350-600|1|G-ISP1200-1700|1|G-INCSPA - 1200-1700|1|
oscilobatanta L 350:650 H 1701:2200 GEVISS|GEVISS|toate|toate|0|0|350|650|1701|2200|0|2|-1
G-ACC-4|4|G-DD8|1|G-DD-F350-600|1|G-ISP1700-2200|1|G-INCSPA - 1700-2200|1|
oscilobatanta L 651:850 H 450:700 GEVISS|GEVISS|toate|toate|0|0|651|850|451|700|0|2|-1
G-ACC-4|4|G-DD8|1|G-DD-F601-850|1|G-ISP500-700|1|
oscilobatanta L 651:850 H 701:1200 GEVISS|GEVISS|toate|toate|0|0|651|850|701|1200|0|2|-1
G-ACC-4|4|G-DD8|1|G-DD-F601-850|1|G-ISP700-1200|1|G-INCSPA - 800-1200|1|
oscilobatanta L 651:850 H 1201:1700 GEVISS|GEVISS|toate|toate|0|0|651|850|1201|1700|0|2|-1
G-ACC-4|4|G-DD8|1|G-DD-F601-850|1|G-ISP1200-1700|1|G-INCSPA - 1200-1700|1|
oscilobatanta L 651:850 H 1701:2200 GEVISS|GEVISS|toate|toate|0|0|651|850|1701|2200|0|2|-1
G-ACC-4|4|G-DD8|1|G-DD-F601-850|1|G-ISP1700-2200|1|G-INCSPA - 1700-2200|1|
oscilobatanta L 851:1100 H 450:700 GEVISS|GEVISS|toate|toate|0|0|851|1100|450|700|0|2|-1
G-ACC-4|4|G-DD8|1|G-DD-F851-1100|1|G-ISP500-700|1|
oscilobatanta L 851:1100 H 701:1200 GEVISS|GEVISS|toate|toate|0|0|851|1100|701|1200|0|2|-1
G-ACC-4|4|G-DD8|1|G-DD-F851-1100|1|G-ISP700-1200|1|G-INCSPA - 800-1200|1|
oscilobatanta L 851:1100 H 1201:1700 GEVISS|GEVISS|toate|toate|0|0|851|1100|1201|1700|0|2|-1
G-ACC-4|4|G-DD8|1|G-DD-F851-1100|1|G-ISP1200-1700|1|G-INCSPA - 1200-1700|1|
oscilobatanta L 851:1100 H 1701:2200 GEVISS|GEVISS|toate|toate|0|0|851|1100|1701|2200|0|2|-1
G-ACC-4|4|G-DD8|1|G-DD-F851-1100|1|G-ISP1700-2200|1|G-INCSPA - 1700-2200|1|
usa Z usa multisistem H1650:1800 GEVISS|GEVISS|toate|toate|0|0|350|1100|1600|1800|1|1|-1
G-ISP-BR-1600|1|G-ACC-4|3|G-ACC-12|1|G-ACC-10|1|
usa Z usa multisistem H1801:2200 GEVISS|GEVISS|toate|toate|0|0|350|1100|1801|2200|1|1|-1
G-ISP-BR-1800|1|G-ACC-12|1|G-ACC-10|1|G-ACC-4|4|
usa fara maner Z usa+ bal. elefant GEVISS|GEVISS|toate|toate|0|0|350|1100|1650|2500|1|0|-1
G-ACC-6|2|G-ACC-1|2|
usa interior Zfer + broasca + butuc + bal. regl. GEVISS|GEVISS|toate|toate|0|0|350|1200|1500|2500|2|1|-1
G-BRSC-LMB-25|1|G-ACC-11|1|G-ACC-10|1|G-BM4|1|G-SD6|1|
usa interior fara maner Zfer + bal.regl. GEVISS|GEVISS|toate|toate|0|0|350|1200|1500|2500|2|0|-1
G-SD6|1|G-BM4|1|G-ACC-1|2|G-ACC-6|2|
usa balcon Zfer + bal. regl. GEVISS|GEVISS|toate|toate|0|0|350|1200|1500|2500|3|1|-1
G-SD-1800|1|G-BM4|1|G-ACC-13|1|G-ACC-4|3|G-SD6|1|
usa balcon fara maner Zfer + bal.regl. GEVISS|GEVISS|toate|toate|0|0|350|1200|1500|2500|2|0|-1
G-SD6|1|G-ACC-6|2|G-ACC-1|2|G-BM4|1|
batanta sus < 600 GEVISS|GEVISS|toate|toate|0|0|350|600|350|1500|0|3|-1
G-ACC-22|1|G-SD-400|1|G-ACC-4|3|
batanta sus > 600 GEVISS|GEVISS|toate|toate|0|0|601|2500|350|1500|0|3|-1
G-SD-600|1|G-ACC-23|2|G-ACC-4|3|
batanta jos < 600 GEVISS|GEVISS|toate|toate|0|0|350|600|350|1500|0|4|-1
G-ACC-22|1|G-SD-400|1|G-ACC-4|3|
batanta jos > 600 GEVISS|GEVISS|toate|toate|0|0|601|2500|350|1500|0|4|-1
G-SD-600|1|G-ACC-23|2|G-ACC-4|3|
fara maner pentru simpla ROTO|ROTO NT|toate|toate|0|0|250|2200|250|2200|0|0|-1
G-SD6|1|G-ACC-1|2|brotos|2|G-ACC-6|2|
fara maner pentru oscilobatanta ROTO|ROTO NT|toate|toate|0|0|250|2200|250|2200|0|0|-1
G-SD6|1|G- KM111 9/1311|1|G-ACC-6|2|brotos|2|
simpla H250:400 ROTO|ROTO NT|toate|toate|0|0|250|1500|200|400|0|0|-1
G-SD6|1|broto|2|G-SD-300|1|
simpla H401:600 ROTO|ROTO NT|toate|toate|0|0|250|1500|401|600|0|0|-1
G-SD-400|1|G-SD6|1|broto|2|
simpla H601:800 ROTO|ROTO NT|toate|toate|0|0|250|1500|601|800|0|0|-1
broto|2|G-SD6|1|G-SD-600|1|
simpla H801:1000 ROTO|ROTO NT|toate|toate|0|0|250|1500|801|1000|0|1|-1
G-SD-800|1|G-SD6|1|broto|2|
simpla H1001:1200 ROTO|ROTO NT|toate|toate|0|0|250|1500|1001|1200|0|1|-1
G-SD6|1|broto|3|G-SD-1000|1|
simpla H1201:1400 ROTO|ROTO NT|toate|toate|0|0|250|1500|1201|1400|0|1|-1
G-SD-1200|1|G-SD6|1|broto|3|
simpla H1401:1600 ROTO|ROTO NT|toate|toate|0|0|250|1500|1401|1600|0|1|-1
G-SD-1400|1|G-SD6|1|broto|4|
simpla H1601:1800 ROTO|ROTO NT|toate|toate|0|0|250|1500|1601|1800|0|1|-1
G-SD6|1|broto|4|G-SD-1600|1|
simpla H1801:2000 ROTO|ROTO NT|toate|toate|0|0|250|1500|1801|2000|0|1|-1
G-SD-1800|1|broto|5|G-SD6|1|G-ACC-4|4|
simpla H2001:2200 ROTO|ROTO NT|toate|toate|0|0|250|1500|2001|2200|0|1|-1
G-SD6|1|broto|5|G-SD-2000|1|
oscilobatanta L 310:610 H 465:620 ROTO|ROTO NT|toate|toate|0|0|310|610|465|620|0|2|-1
G-DD8|1|10003|8|10005|16|10006|8|broto|2|G-ISP500-7002|1|G-DD-F350-600|1|
oscilobatanta L 310:610 H 621:1000 ROTO|ROTO NT|toate|toate|0|0|310|610|621|1000|0|2|-1
G-DD8|1|10006|8|10005|16|10003|8|broto|3|G-ISP700-1200|1|G-DD-F350-600|1|
oscilobatanta L 310:610 H 1001:1400 ROTO|ROTO NT|toate|toate|0|0|310|610|1001|1400|0|2|-1
G-DD8|1|10003|8|10005|16|10006|8|broto|3|G-ISP900-1400|1|G-DD-F350-600|1|
oscilobatanta L 310:610 H 1401:1800 ROTO|ROTO NT|toate|toate|0|0|310|610|1401|1800|0|2|-1
G-DD8|1|10006|8|10005|16|10003|8|G-INCSPA - 800-1200|1|broto|4|G-ISP1200-1700|1|G-DD-F350-600|1|
oscilobatanta L 310:610 H 1801:2000 ROTO|ROTO NT|toate|toate|0|0|310|610|1801|2000|0|2|-1
G-DD8|1|10005|16|10006|8|10003|8|broto|6|G-INCSPA - 800-1200|1|G-ISP1200-17002|1|G-DD-F350-600|1|
oscilobatanta L 310:610 H 2001:2400 ROTO|ROTO NT|toate|toate|0|0|310|610|2001|2400|0|2|-1
G-DD8|1|10005|16|10006|8|G-ISP1700-2200|1|broto|6|G-DD-F350-600|1|G-INCSPA - 800-1200|1|
oscilobatanta L 611:800 H 465:620 ROTO|ROTO NT|toate|toate|0|0|611|800|465|620|0|2|-1
G-DD8|1|10005|16|G-ISP500-7002|1|broto|2|G-DD-F400-650|1|10006|8|
oscilobatanta L 611:800 H 621:1000 ROTO|ROTO NT|toate|toate|0|0|611|800|621|1000|0|2|-1
G-DD8|1|10005|16|10006|8|G-DD-F400-650|1|broto|3|G-ISP700-1200|1|
oscilobatanta L 611:800 H 1001:1400 ROTO|ROTO NT|toate|toate|0|0|611|800|1001|1400|0|2|-1
G-DD8|1|10005|16|G-ISP900-1400|1|broto|3|G-DD-F400-650|1|10006|8|
oscilobatanta L 611:800 H 1401:1800 ROTO|ROTO NT|toate|toate|0|0|611|800|1401|1800|0|2|-1
G-DD8|1|10005|16|10006|8|broto|5|G-INCSPA - 800-1200|1|G-ISP1200-1700|1|G-DD-F400-650|1|
oscilobatanta L 611:800 H 1801:2000 ROTO|ROTO NT|toate|toate|0|0|611|800|1801|2000|0|2|-1
G-DD8|1|10005|16|10006|8|G-ISP1200-17002|1|G-INCSPA - 800-1200|1|G-DD-F400-650|1|broto|5|
oscilobatanta L 611:800 H 2001:2400 ROTO|ROTO NT|toate|toate|0|0|611|800|2001|2400|0|2|-1
G-DD8|1|10005|16|10006|8|G-DD-F400-650|1|broto|6|G-INCSPA - 800-1200|1|G-ISP1700-2200|1|
oscilobatanta L 811:1010 H 465:620 ROTO|ROTO NT|toate|toate|0|0|811|1010|465|620|0|2|-1
G-DD8|1|10005|16|10006|8|G-ISP500-7002|1|G-DD-F601-850|1|broto|2|
oscilobatanta L 811:1010 H 621:1000 ROTO|ROTO NT|toate|toate|0|0|811|1010|621|1000|0|2|-1
G-DD8|1|10005|16|10006|8|G-ISP700-1200|1|G-DD-F601-850|1|broto|3|
oscilobatanta L 811:1010 H 1001:1400 ROTO|ROTO NT|toate|toate|0|0|811|1010|1001|1400|0|2|-1
G-DD8|1|10005|16|10006|8|G-ISP900-1400|1|G-DD-F601-850|1|broto|3|
oscilobatanta L 811:1010 H 1401:1800 ROTO|ROTO NT|toate|toate|0|0|811|1010|1401|1800|0|2|-1
G-DD8|1|10005|16|10006|8|G-ISP1200-1700|1|G-INCSPA - 800-1200|1|G-DD-F601-850|1|broto|5|
oscilobatanta L 811:1010 H 1801:2000 ROTO|ROTO NT|toate|toate|0|0|811|1010|1810|2000|0|2|-1
G-DD8|1|10005|16|10006|8|G-ISP1200-17002|1|G-INCSPA - 800-1200|1|G-DD-F601-850|1|broto|5|
oscilobatanta L 811:1010 H 2001:2400 ROTO|ROTO NT|toate|toate|0|0|811|1010|2001|2400|0|2|-1
G-DD8|1|10005|16|10006|8|G-ISP1700-2200|1|G-INCSPA - 800-1200|1|G-DD-F601-850|1|broto|6|
oscilobatanta L 1011:1210 H 465:620 ROTO|ROTO NT|toate|toate|0|0|1011|1210|465|620|0|2|-1
G-DD8|1|10006|8|G-ISP500-7002|1|G-DD-F851-1100|1|broto|2|10005|16|
oscilobatanta L 1011:1210 H 621:1000 ROTO|ROTO NT|toate|toate|0|0|1011|1210|621|1000|0|2|-1
G-DD8|1|10005|16|10006|8|G-ISP700-1200|1|G-DD-F851-1100|1|broto|4|
oscilobatanta L 1011:1210 H 1001:1400 ROTO|ROTO NT|toate|toate|0|0|1011|1210|1001|1400|0|2|-1
G-DD8|1|10005|16|10006|8|G-ISP900-1400|1|G-INCSPA - 800-1200|1|G-DD-F851-1100|1|broto|5|
oscilobatanta L 1011:1210 H 1401:1800 ROTO|ROTO NT|toate|toate|0|0|1011|1210|1401|1800|0|2|-1
G-DD8|1|10005|16|10006|8|G-ISP1200-1700|1|G-INCSPA - 800-1200|1|G-DD-F851-1100|1|broto|6|
oscilobatanta L 1011:1210 H 1801:2000 ROTO|ROTO NT|toate|toate|0|0|1011|1210|1801|2000|0|2|-1
G-DD8|1|10005|16|10006|8|G-ISP1200-17002|1|G-INCSPA - 800-1200|1|broto|7|G-DD-F851-1100|1|
oscilobatanta L 1011:1210 H 2001:2400 ROTO|ROTO NT|toate|toate|0|0|1011|1210|2001|2400|0|2|-1
G-DD8|1|10005|16|10006|8|G-ISP1700-2200|1|G-INCSPA - 800-1200|1|G-DD-F851-1100|1|broto|7|
oscilobatanta L 1211:1400 H 465:620 ROTO|ROTO NT|toate|toate|0|0|1211|1400|465|620|0|2|-1
G-DD8|1|10005|16|10006|8|G-ISP500-7002|1|G-DD-F851-11002|1|broto|3|
oscilobatanta L 1211:1400 H 621:1000 ROTO|ROTO NT|toate|toate|0|0|1211|1400|621|1000|0|2|-1
G-DD8|1|10005|16|10006|8|G-ISP700-1200|1|G-DD-F851-11002|1|broto|4|
oscilobatanta L 1211:1400 H 1001:1400 ROTO|ROTO NT|toate|toate|0|0|1211|1400|1001|1400|0|2|-1
G-DD8|1|10005|16|10006|8|G-ISP900-1400|1|G-INCSPA - 800-1200|1|G-DD-F851-11002|1|broto|4|
oscilobatanta L 1211:1400 H 1401:1800 ROTO|ROTO NT|toate|toate|0|0|1211|1400|1401|1800|0|2|-1
G-DD8|1|10005|16|G-ISP1200-1700|1|10006|8|G-INCSPA - 800-1200|1|G-DD-F851-11002|1|broto|5|
oscilobatanta L 1211:1400 H 1801:2000 ROTO|ROTO NT|toate|toate|0|0|1211|1400|1801|2000|0|2|-1
G-DD8|1|10005|16|10006|8|G-ISP1200-17002|1|G-INCSPA - 800-1200|1|G-DD-F851-11002|1|broto|7|
oscilobatanta L 1211:1400 H 2001:2400 ROTO|ROTO NT|toate|toate|0|0|1211|1400|2001|2400|0|2|-1
G-DD8|1|10006|8|10005|16|G-ISP1700-2200|1|G-INCSPA - 800-1200|1|G-DD-F851-11002|1|broto|7|
fara maner ENDOW|ENDOW|toate|toate|0|0|250|2200|250|2200|0|0|-1
E2|1|10003|12|10005|4|10006|6|10006|6|10015|2|10003|4|SR207-A|1|SR207-U|1|
simpla H250:400 ENDOW|ENDOW|toate|toate|0|0|250|1500|200|400|0|1|-1
E2|1|10003|8|10005|4|10006|3|10005|4|E9|1|
simpla H401:600 ENDOW|ENDOW|toate|toate|0|0|250|1500|401|600|0|1|-1
E2|1|10003|8|10006|3|10005|4|10005|4|E10|1|
simpla H601:800 ENDOW|ENDOW|toate|toate|0|0|250|1500|601|800|0|1|-1
E2|1|10003|8|10005|10|10006|3|E11|1|
simpla H801:1000 ENDOW|ENDOW|toate|toate|0|0|250|1500|801|1000|0|1|-1
E2|1|10003|8|10006|3|10005|12|E12|1|
simpla H1001:1200 ENDOW|ENDOW|toate|toate|0|0|250|1500|1001|1200|0|1|-1
E13|1|10003|8|E2|1|10005|12|10006|3|
simpla H1201:1400 ENDOW|ENDOW|toate|toate|0|0|250|1500|1201|1400|0|1|-1
E2|1|10003|8|10006|3|10005|12|E14|1|
simpla H1401:1600 ENDOW|ENDOW|toate|toate|0|0|250|1500|1401|1600|0|1|-1
E15|1|10005|14|10006|3|E2|1|
simpla H1601:1800 ENDOW|ENDOW|toate|toate|0|0|250|1500|1601|1800|0|1|-1
E2|1|E8|1|10006|6|10005|14|10003|12|E16|1|
simpla H1801:2000 ENDOW|ENDOW|toate|toate|0|0|250|1500|1801|2000|0|1|-1
E17|1|10003|12|10005|14|10006|6|E8|1|E2|1|
simpla H2001:2200 ENDOW|ENDOW|toate|toate|0|0|250|1500|2001|2400|0|1|-1
E2|1|10006|6|10005|16|10003|12|E8|1|E18|1|
oscilobatanta L 350:650 H 450:700 ENDOW|ENDOW|toate|toate|0|0|460|650|450|700|0|2|-1
E1|1|G-ACC-4|1|10003|8|E3|1|E6|1|10005|15|10006|7|
oscilobatanta L 350:650 H 700:1200 ENDOW|ENDOW|toate|toate|0|0|460|650|701|1200|0|2|-1
E6|1|G-ACC-4|2|10006|7|10005|15|10003|8|E4|1|E1|1|
oscilobatanta L 350:650 H1200:1400 ENDOW|ENDOW|toate|toate|0|0|460|650|1201|1400|0|2|-1
E1|1|G-ACC-4|2|G-ACC-4|2|10003|8|10005|17|10006|10|E25|1|E20|1|E6|1|
oscilobatanta L 350:650 H1400:1700 ENDOW|ENDOW|toate|toate|0|0|460|650|1401|1700|0|2|-1
E1|1|G-ACC-4|3|G-ACC-4|2|10006|10|10005|18|10003|8|E6|1|E23|1|E19|1|
oscilobatanta L 350:650 H1700:2200 ENDOW|ENDOW|toate|toate|0|0|460|650|1701|2200|0|2|-1
E6|1|G-ACC-4|6|10005|120|10006|10|10003|8|E24|1|E20|1|E1|1|
oscilobatanta L 350:650 H2200:2700 ENDOW|ENDOW|toate|toate|0|0|460|650|2200|2700|0|2|-1
E6|1|G-ACC-4|8|10006|110|10005|126|10003|8|E24|1|E1|1|E21|1|
oscilobatanta L 651:850 H450:700 ENDOW|ENDOW|toate|toate|0|0|651|850|451|700|0|2|-1
E1|1|G-ACC-4|1|10005|15|10006|7|10003|8|E3|1|E7|1|
oscilobatanta L 651:850 H701:1200 ENDOW|ENDOW|toate|toate|0|0|651|850|701|1200|0|2|-1
E7|1|G-ACC-4|2|10005|15|10006|7|10003|8|E4|1|E1|1|
oscilobatanta L 651:850 H1201:1400 ENDOW|ENDOW|toate|toate|0|0|651|850|1201|1400|0|2|-1
E2|1|G-ACC-4|4|10005|18|10006|9|10003|8|E25|1|E7|1|E5|1|
oscilobatanta L 651:850 H1401:1700 ENDOW|ENDOW|toate|toate|0|0|651|850|1401|1700|0|2|-1
E7|1|G-ACC-4|5|10006|10|10005|18|10003|8|E1|1|E19|1|E25|1|
oscilobatanta L 651:850 H1700:2200 ENDOW|ENDOW|toate|toate|0|0|651|850|1701|2200|0|2|-1
E7|1|G-ACC-4|6|10005|20|10006|10|10003|8|E1|1|E24|1|E20|1|
oscilobatanta L 651:850 H2200:2700 ENDOW|ENDOW|toate|toate|0|0|651|850|2201|2700|0|2|-1
E1|1|G-ACC-4|8|10006|10|10003|8|E7|1|E24|1|E21|1|10005|20|
oscilobatanta L 851:1100 H 450:700 ENDOW)|ENDOW|toate|toate|0|0|851|1100|450|700|0|2|-1
E1|1|G-ACC-4|2|10005|18|10006|9|10003|8|E3|1|E22|1|
oscilobatanta L 851:1100 H 701:1200 ENDOW)|ENDOW|toate|toate|0|0|851|1100|701|1200|0|2|-1
E22|1|G-ACC-4|3|10006|10|10005|81|10003|8|E4|1|E1|1|
oscilobatanta L 851:1100 H 1201:1400 ENDOW|ENDOW|toate|toate|0|0|851|1100|1201|1400|0|2|-1
E1|1|G-ACC-4|5|10005|20|10006|10|10003|8|E25|1|E22|1|E5|1|
oscilobatanta L 851:1100 H 1401:1700 ENDOW|ENDOW|toate|toate|0|0|851|1100|1401|1700|0|2|-1
E1|1|G-ACC-4|6|10006|10|10005|20|10003|8|E22|1|E19|1|E23|1|
oscilobatanta L 851:1100 H 1701:2200 ENDOW)|ENDOW|toate|toate|0|0|851|1100|1701|2200|0|2|-1
E24|1|G-ACC-4|8|10005|20|10006|10|10003|8|E20|1|E1|1|E22|1|
oscilobatanta L 851:1100 H 2200:2700 ENDOW)|ENDOW|toate|toate|0|0|851|1100|2201|2700|0|2|-1
E24|1|G-ACC-4|10|10006|16|10005|26|10003|8|E1|1|E21|1|E22|1|
fara maner Vorne|Vorne|toate|toate|0|0|250|2200|250|2200|0|0|-1
KM111 9/13|1|UM204|1|SM118-3|1|MN117|1|HM126-3|1|SR207-A|1|SR207-U|1|
simpla H250:400 Vorne|Vorne|toate|toate|0|0|250|1500|200|400|0|1|-1
SP300|1|MN117|1|KM111 9/13|1|HM126-3|1|SM118-3|1|UM204|1|
simpla H401:600 Vorne|Vorne|toate|toate|0|0|250|1500|401|600|0|1|-1
SP400|1|HM126-3|1|KM111 9/13|1|MN117|1|SM118-3|1|UM204|1|
simpla H601:800 Vorne|Vorne|toate|toate|0|0|250|1500|601|800|0|1|-1
SP600|1|MN117|1|HM126-3|1|KM111 9/13|1|SM118-3|1|UM204|1|
simpla H801:1000 Vorne|Vorne|toate|toate|0|0|250|1500|801|1000|0|1|-1
SP800|1|MN117|1|HM126-3|1|KM111 9/13|1|SM118-3|1|UM204|1|
simpla H1001:1200 Vorne|Vorne|toate|toate|0|0|250|1500|1001|1200|0|1|-1
SP800|1|MN117|1|HM126-3|1|KM111 9/13|1|SM118-3|1|UM204|1|
simpla H1201:1400 Vorne|Vorne|toate|toate|0|0|250|1500|1201|1400|0|1|-1
SP1200|1|MN117|1|HM126-3|1|KM111 9/13|1|SM118-3|1|UM204|1|
simpla H1401:1600 Vorne|Vorne|toate|toate|0|0|250|1500|1401|1600|0|1|-1
SP1400|1|MN117|1|HM126-3|1|KM111 9/13|1|SM118-3|1|UM204|1|
simpla H1601:1800 Vorne|Vorne|toate|toate|0|0|250|1500|1601|1800|0|1|-1
SP1600|1|MN117|1|HM126-3|1|KM111 9/13|1|SM118-3|1|UM204|1|
simpla H1801:2000 Vorne|Vorne|toate|toate|0|0|250|1500|1801|2000|0|1|-1
SP1800|1|MN117|1|HM126-3|1|KM111 9/13|1|SM118-3|1|UM204|1|
oscilobatanta L 350:650 H 450:700 Vorne|Vorne|toate|toate|0|0|350|650|450|700|0|2|-1
SP101-1|1|MK104-0|1|OK105-0|1|KH102|1|HM126-3|1|KM111 9/13|1|MN117|1|SM118-3|1|AKK3101/3102|1|AK103|1|
oscilobatanta L 350:650 H 700:1200 Vorne|Vorne|toate|toate|0|0|350|650|701|1200|0|2|-1
SP101-2|1|MK104-0|1|OK105-0|1|KH102|1|HM126-3|1|KM111 9/13|1|MN117|1|SM118-3|1|AKK3101/3102|1|AK103|1|
oscilobatanta L 350:650 H1200:1700 Vorne|Vorne|toate|toate|0|0|350|650|1201|1700|0|2|-1
SP101-4|1|MK104-0|1|OK105-2|1|KH102|1|HM126-3|1|KM111 9/13|1|MN117|1|SM118-3|1|AKK3101/3102|1|AK103|1|
oscilobatanta L 350:650 H1700:2200 Vorne|Vorne|toate|toate|0|0|350|650|1701|2200|0|2|-1
SP101-5|1|MK104-0|1|OK105-3|1|KH102|1|HM126-3|1|KM111 9/13|1|MN117|1|SM118-3|1|AKK3101/3102|1|AK103|1|
oscilobatanta L 651:850 H450:700 Vorne|Vorne|toate|toate|0|0|651|850|451|700|0|2|-1
SP101-1|1|MK104-2|1|OK105-0|1|KH102|1|HM126-3|1|KM111 9/13|1|MN117|1|SM118-3|1|AKK3101/3102|1|AK103|1|
oscilobatanta L 651:850 H701:1200 Vorne|Vorne|toate|toate|0|0|651|850|701|1200|0|2|-1
SP101-2|1|MK104-2|1|OK105-1|1|KH102|1|HM126-3|1|KM111 9/13|1|MN117|1|SM118-3|1|AKK3101/3102|1|AK103|1|
oscilobatanta L 651:850 H1201:1700 Vorne|Vorne|toate|toate|0|0|651|850|1201|1700|0|2|-1
SP101-4|1|MK104-2|1|OK105-2|1|KH102|1|HM126-3|1|KM111 9/13|1|MN117|1|SM118-3|1|AKK3101/3102|1|AK103|1|
oscilobatanta L 651:850 H1701:2200 Vorne|Vorne|toate|toate|0|0|651|850|1701|2200|0|2|-1
SP101-5|1|MK104-2|1|OK105-3|1|KH102|1|HM126-3|1|KM111 9/13|1|MN117|1|SM118-3|1|AKK3101/3102|1|AK103|1|
oscilobatanta L 851:1100 H 450:700 Vorne|Vorne|toate|toate|0|0|851|1100|450|700|0|2|-1
SP101-1|1|MK104-3|1|OK105-0|1|KH102|1|HM126-3|1|KM111 9/13|1|MN117|1|SM118-3|1|AKK3101/3102|1|AK103|1|
oscilobatanta L 851:1100 H 701:1200 Vorne|Vorne|toate|toate|0|0|851|1100|701|1200|0|2|-1
SP101-2|1|MK104-3|1|OK105-1|1|KH102|1|HM126-3|1|KM111 9/13|1|MN117|1|SM118-3|1|AKK3101/3102|1|AK103|1|
oscilobatanta L 851:1100 H 1201:1700 Vorne|Vorne|toate|toate|0|0|851|1100|1201|1700|0|2|-1
SP101-4|1|MK104-3|1|OK105-2|1|KH102|1|HM126-3|1|KM111 9/13|1|MN117|1|SM118-3|1|AKK3101/3102|1|AK103|1|
oscilobatanta L 851:1100 H 1701:2200 Vorne|Vorne|toate|toate|0|0|851|1100|1701|2200|0|2|-1
SP101-5|1|MK104-3|1|OK105-3|1|KH102|1|HM126-3|1|KM111 9/13|1|MN117|1|SM118-3|1|AKK3101/3102|1|AK103|1|
oscilobatanta L 1101:1350 H 450:700 Vorne|Vorne|toate|toate|0|0|1101|1350|450|700|0|2|-1
SP101-1|1|MK104-4|1|OK105-0|1|KH102|1|HM126-3|1|KM111 9/13|1|MN117|1|SM118-3|1|AKK3101/3102|1|AK103|1|
oscilobatanta L 1101:1350 H 701:1200 Vorne|Vorne|toate|toate|0|0|1101|1350|701|1200|0|2|-1
SP101-2|1|MK104-4|1|OK105-1|1|KH102|1|HM126-3|1|KM111 9/13|1|MN117|1|SM118-3|1|AKK3101/3102|1|AK103|1|
oscilobatanta L 1101:1350 H1201:1700 Vorne|Vorne|toate|toate|0|0|1101|1350|1201|1700|0|2|-1
SP101-4|1|MK104-4|1|OK105-2|1|KH102|1|HM126-3|1|KM111 9/13|1|MN117|1|SM118-3|1|AKK3101/3102|1|AK103|1|
oscilobatanta L 1101:1350 H1701:2200 Vorne|Vorne|toate|toate|0|0|1101|1350|1701|2200|0|2|-1
SP101-5|1|MK104-4|1|OK105-3|1|KH102|1|HM126-3|1|KM111 9/13|1|MN117|1|SM118-3|1|AKK3101/3102|1|AK103|1|
oscilobatanta L 1351:1600 H 450:700 Vorne|Vorne|toate|toate|0|0|1351|1600|450|700|0|2|-1
SP101-1|1|MK104-5|1|OK105-0|1|KH102|1|HM126-3|1|KM111 9/13|1|MN117|1|SM118-3|1|AKK3101/3102|1|AK103|1|
oscilobatanta L 1351:1600 H 701:1200 Vorne|Vorne|toate|toate|0|0|1351|1600|701|1200|0|2|-1
SP101-2|1|MK104-5|1|OK105-1|1|KH102|1|HM126-3|1|KM111 9/13|1|MN117|1|SM118-3|1|AKK3101/3102|1|AK103|1|
oscilobatanta L 1351:1600 H1201:1700 Vorne|Vorne|toate|toate|0|0|1351|1600|1201|1700|0|2|-1
SP101-4|1|MK104-5|1|OK105-2|1|KH102|1|HM126-3|1|KM111 9/13|1|MN117|1|SM118-3|1|AKK3101/3102|1|AK103|1|
oscilobatanta L 1351:1600 H1701:2200 Vorne|Vorne|toate|toate|0|0|1351|1600|1701|2200|0|2|-1
SP101-5|1|MK104-5|1|OK105-3|1|KH102|1|HM126-3|1|KM111 9/13|1|MN117|1|SM118-3|1|AKK3101/3102|1|AK103|1|
usa Z usa multisistem H1650:1800 ENDOW|ENDOW|toate|toate|0|0|350|1300|1650|1800|1|1|-1
SPB16001|1|10006|6|G-ACC-4|4|10005|10|
usa Z usa multisistem H1801:1950 ENDOW|ENDOW|toate|toate|0|0|350|1300|1801|1950|1|1|-1
SPB18001|1|10006|6|10005|10|G-ACC-4|4|
usa Z usa multisistem H1951:2500 ENDOW|ENDOW|toate|toate|0|0|350|1300|1951|2500|1|1|-1
SPB18001|1|10006|6|10005|10|G-ACC-4|4|
usa fara maner Z usa+ bal. elefant ENDOW|ENDOW|toate|toate|0|0|350|1300|1650|2500|1|0|-1

usa interior fara maner Zfer + bal.regl. ENDOW|ENDOW|toate|toate|0|0|200|1200|1500|2500|2|0|-1
E2|1|10003|12|10006|6|E8|1|
usa interior Zfer + broasca + butuc + bal. regl ENDOW.|ENDOW|toate|toate|0|0|350|1200|1500|2500|2|1|-1
E2|1|10006|12|10003|12|10005|10|G-ACC-12|1|G-ACC-4|4|E8|1|KP12111|1|SPB18001|1|BTC90|1|
usa balcon fara maner Zfer + bal.regl. ENDOW|ENDOW|toate|toate|0|0|350|1200|1500|2500|3|0|-1
SR207-U|2|KP12111|1|E2|1|E8|1|
usa balcon Zfer + bal. regl. ENDOW 300|ENDOW|toate|toate|0|0|350|1100|350|450|3|1|-1
E10|1|E2|1|10006|8|10003|12|G-ACC-4|2|
usa balcon Zfer + bal. regl. ENDOW 400|ENDOW|toate|toate|0|0|350|1100|451|650|3|1|-1
10006|8|E2|1|10003|12|G-ACC-4|2|E10|1|
usa balcon Zfer + bal. regl. ENDOW 600|ENDOW|toate|toate|0|0|350|1100|651|850|3|1|-1
E11|1|E2|1|10006|8|10003|12|G-ACC-4|2|
usa balcon Zfer + bal. regl. ENDOW 800|ENDOW|toate|toate|0|0|350|1100|851|1050|3|1|-1
E12|1|E2|1|10006|8|10003|12|G-ACC-4|3|
usa balcon Zfer + bal. regl. ENDOW 1000|ENDOW|toate|toate|0|0|350|1100|1051|1250|3|1|-1
E2|1|10006|8|10003|12|G-ACC-4|3|E13|1|
usa balcon Zfer + bal. regl. ENDOW 1200|ENDOW|toate|toate|0|0|350|1100|1251|1450|3|1|-1
E14|1|E2|1|10006|8|10003|12|G-ACC-4|4|
usa balcon Zfer + bal. regl. ENDOW 1400|ENDOW|toate|toate|0|0|350|1100|1451|1650|3|1|-1
E15|1|E2|1|10006|8|10003|12|G-ACC-4|4|
usa balcon Zfer + bal. regl. ENDOW 1600|ENDOW|toate|toate|0|0|350|1100|1650|1840|3|1|-1
E8|1|10005|10|10006|8|10003|12|G-ACC-4|4|E2|1|E16|1|KP12111|1|
usa balcon Zfer + bal. regl. ENDOW 1800|ENDOW|toate|toate|0|0|350|1100|1841|2000|3|1|-1
E8|1|10005|10|E17|1|10006|8|10003|12|G-ACC-4|4|E2|1|KP12111|1|
usa balcon Zfer + bal. regl. ENDOW 2000|ENDOW|toate|toate|0|0|350|1100|2001|2500|3|1|-1
E8|1|10005|10|E18|1|10006|8|10003|12|G-ACC-4|4|E2|1|KP12111|1|
usa Z usa multisistem H1650:1800 ROTO|ROTO NT|toate|toate|0|0|350|1100|1600|1800|1|1|-1
G-ISP-BR-1600|1|10005|10|G-ACC-12|1|10006|6|broto|4|G-ACC-10|1|
usa Z usa multisistem H1801:2200 ROTO|ROTO NT|toate|toate|0|0|350|1100|1801|2200|1|1|-1
G-ISP-BR-1800|1|10006|6|10005|10|G-ACC-10|1|G-ACC-12|1|broto|4|
usa Z usa multisistem H1650:1800|Vorne|toate|toate|0|0|350|1100|1650|1800|1|1|-1
SPB1600|1|
usa Z usa multisistem H1801:1950|Vorne|toate|toate|0|0|350|1100|1801|1950|1|1|-1
SPB1800|1|
usa Z usa multisistem H1951:2500|Vorne|toate|toate|0|0|350|1100|1951|2500|1|1|-1
SPB1800|1|
usa fara maner Z usa+ bal. elefant|Vorne|toate|toate|0|0|350|1100|1650|2500|1|0|-1
SR207-U|2|
usa fara maner Z usa+ bal. elefant ROTO|ROTO NT|toate|toate|0|0|350|1100|1650|2500|1|0|-1
G-ACC-6|2|brotos|4|10006|12|G-ACC-1|2|10015|2|
usa interior Zfer + broasca + butuc + bal. regl.|Vorne|toate|toate|0|0|350|1200|1500|2500|2|1|-1
G-BRSC-LMB-25|1|G-ACC-9|1|HM126-3|1|KM111 9/13|2|MN117|1|SM118-3|1|OM205|1|MN117|1|
usa interior Zfer + broasca + butuc + bal. regl. ROTO|ROTO NT|toate|toate|0|0|350|1200|1500|2500|2|1|-1
G-ACC-11|1|G-ISP-BR-1600|1|G-ACC-10|1|G-BM4|1|G-SD6|1|broto|4|10006|6|10007|6|10005|4|
usa interior fara maner Zfer + bal.regl.|Vorne|toate|toate|0|0|350|1200|1500|2500|2|0|-1
HM126-3|1|KM111 9/13|2|MN117|2|SM118-3|1|OM205|1|SR207-U|2|
usa interior fara maner Zfer + bal.regl. ROTO|ROTO NT|toate|toate|0|0|350|1200|1500|2500|2|0|-1
G-SD6|1|G-BM4|1|G-ACC-1|2|10015|2|10005|4|brotos|4|10006|10|10007|6|10003|12|
usa balcon fara maner Zfer + bal.regl.|Vorne|toate|toate|0|0|350|1200|1500|2500|3|0|-1
HM126-3|1|KM111 9/13|2|MN117|2|SM118-3|1|OM205|1|SR207-U|2|
usa balcon Zfer + bal. regl.|Vorne|toate|toate|0|0|350|1200|1500|2500|3|1|-1
SP1800|1|HM126-3|1|KM111 9/13|2|MN117|2|SM118-3|1|OM205|1|
usa balcon Zfer + bal. regl. ROTO|ROTO NT|toate|toate|0|0|350|1200|1500|2500|3|1|-1
G-SD-1800|1|G-BM4|1|G-ACC-13|1|G-ACC-4|3|G-SD6|1|
usa balcon fara maner Zfer + bal.regl. ROTO|ROTO NT|toate|toate|0|0|350|1200|1500|2500|2|0|-1
G-SD6|1|G-BM4|1|10015|2|G-ACC-1|2|10005|4|10006|10|10007|6|10003|12|
batanta sus < 600 ROTO|ROTO NT|toate|toate|0|0|350|600|350|1500|0|3|-1
G-ACC-22|1|G-SD-400|1|G-ACC-4|3|
batanta sus > 600 ROTO|ROTO NT|toate|toate|0|0|601|2500|350|1500|0|3|-1
G-SD-600|1|G-ACC-23|2|G-ACC-4|3|
batanta jos < 600 ROTO|ROTO NT|toate|toate|0|0|350|600|350|1500|0|4|-1
G-ACC-22|1|G-SD-400|1|G-ACC-4|3|
batanta jos > 600 ROTO|ROTO NT|toate|toate|0|0|601|2500|350|1500|0|4|-1
G-SD-600|1|G-ACC-23|2|G-ACC-4|3|
batanta sus > 600 ENDOW|ENDOW|toate|toate|0|0|601|1500|601|1200|0|3|-1
E13|1|
batanta jos < 600 ENDOW|ENDOW|toate|toate|0|0|300|600|200|600|0|4|-1
E10|1|10006|4|G-ACC-22|1|G-ACC-4|2|10003|6|10005|10|10006|2|
batanta sus < 600 ENDOW|ENDOW|toate|toate|0|0|350|1500|350|600|0|3|-1
E10|1|
batanta jos 600 ENDOW|ENDOW|toate|toate|0|0|640|850|601|1200|0|4|-1
E11|1|G-ACC-4|2|G-ACC-22|1|10006|4|10006|2|10005|10|10003|6|
batanta jos  800 ENDOW|ENDOW|toate|toate|0|0|851|1050|601|1200|0|4|-1
E12|1|G-ACC-4|2|G-ACC-23|1|10006|4|10003|6|10005|12|10006|2|
batanta jos  1000 ENDOW|ENDOW|toate|toate|0|0|1051|1250|601|1200|0|4|-1
E13|1|G-ACC-4|3|G-ACC-23|1|10006|2|10006|4|10005|12|10003|6|
batanta jos  1200 ENDOW|ENDOW|toate|toate|0|0|1251|1500|601|1200|0|4|-1
E14|1|G-ACC-4|3|G-ACC-23|1|10003|9|10005|14|10006|8|
batanta sus > 600 Vorne|Vorne|toate|toate|0|0|601|1500|601|1200|0|3|-1
SP400|1|
batanta jos < 600 Vorne|Vorne|toate|toate|0|0|350|1500|350|600|0|4|-1
SP400|1|
batanta sus < 600 Vorne|Vorne|toate|toate|0|0|350|1500|350|600|0|3|-1
SP400|1|
batanta jos > 600 Vorne|Vorne|toate|toate|0|0|601|1500|601|1200|0|4|-1
SP400|1|
