Version:5.2.4
balamale + cremon (alb) - simpla GEVISS|GEVISS|toate|alb|0|0|250|1500|250|2500|0|1|-1
G-ACC-18|1|
balamale + cremon (alb) - simpla ROTO|ROTO NT|toate|alb|0|0|250|1500|250|2500|0|1|-1
G-ACC-18|1|
balamale + cremon (alb) - simpla Vorne|Vorne|toate|alb|0|0|250|1500|250|2500|0|1|-1
G-ACC-18|1|KP121|1|
balamale + cremon (alb) - simpla ENDOW|ENDOW|toate|alb|0|0|250|1500|250|2500|0|1|-1
G-ACC-18|1|KP12111|1|
balamale + cremon (laminat) - simpla GEVISS|GEVISS|toate|laminat|0|0|250|1500|250|2500|0|1|-1
G-ACC-19|1|
balamale + cremon (laminat) - simpla ROTO|ROTO NT|toate|laminat|0|0|250|1500|250|2500|0|1|-1
G-ACC-19|1|
balamale + cremon (laminat) - simpla Vorne|Vorne|toate|laminat|0|0|250|1500|250|2500|0|1|-1
G-ACC-19|1|KP121|1|
balamale + cremon (laminat) - simpla ENDOW|ENDOW|toate|laminat|0|0|250|1500|250|2500|0|1|-1
G-ACC-19|1|KP12111|1|
batanta sus balamale + cremon (alb) - simpla GEVISS|GEVISS|toate|alb|0|0|250|1500|250|2500|0|3|-1
G-ACC-18|1|G-ACC-20|2|
batanta sus balamale + cremon (alb) - simpla ROTO|ROTO NT|toate|alb|0|0|250|1500|250|2500|0|3|-1
G-ACC-18|1|G-ACC-20|2|
batanta sus balamale + cremon (alb) - simpla Vorne|Vorne|toate|alb|0|0|250|1500|250|2500|0|3|-1
G-ACC-18|1|G-ACC-20|2|
batanta sus balamale + cremon (alb) - simpla ENDOW|ENDOW|toate|alb|0|0|250|1500|250|2500|0|3|-1
G-ACC-18|1|G-ACC-20|2|
batanta sus balamale + cremon (laminat) - simpla GEVISS|GEVISS|toate|laminat|0|0|250|1500|250|2500|0|3|-1
G-ACC-19|1|G-ACC-21|2|
batanta sus balamale + cremon (laminat) - simpla ROTO|ROTO NT|toate|laminat|0|0|250|1500|250|2500|0|3|-1
G-ACC-19|1|G-ACC-21|2|
batanta sus balamale + cremon (laminat) - simpla Vorne|Vorne|toate|laminat|0|0|250|1500|250|2500|0|3|-1
G-ACC-19|1|G-ACC-21|1|G-ACC-21|1|
batanta sus balamale + cremon (laminat) - simpla ENDOW|ENDOW|toate|laminat|0|0|250|1500|250|2500|0|3|-1
G-ACC-19|1|G-ACC-21|1|G-ACC-21|1|
batanta jos balamale + cremon (alb) - simpla GEVISS|GEVISS|toate|alb|0|0|250|1500|250|2500|0|4|-1
G-ACC-18|1|G-ACC-20|2|
batanta jos balamale + cremon (alb) - simpla ROTO|ROTO NT|toate|alb|0|0|250|1500|250|2500|0|4|-1
G-ACC-20|2|G-ACC-18|1|
batanta jos balamale + cremon (alb) - simpla Vorne|Vorne|toate|alb|0|0|250|1500|250|2500|0|4|-1

batanta jos balamale + cremon (alb) - simpla ENDOW|ENDOW|toate|alb|0|0|250|1500|250|2500|0|4|-1
G-ACC-20|2|G-ACC-18|1|
batanta jos balamale + cremon (laminat) - simpla GEVISS|GEVISS|toate|laminat|0|0|250|1500|250|2500|0|4|-1
G-ACC-19|1|G-ACC-21|2|
batanta jos balamale + cremon (laminat) - simpla ROTO|ROTO NT|toate|laminat|0|0|250|1500|250|2500|0|4|-1
G-ACC-19|1|G-ACC-21|2|
batanta jos balamale + cremon (laminat) - simpla Vorne|Vorne|toate|laminat|0|0|250|1500|250|2500|0|4|-1
G-ACC-19|1|G-ACC-21|2|
batanta jos balamale + cremon (laminat) - simpla ENDOW|ENDOW|toate|laminat|0|0|250|1500|250|2500|0|4|-1
G-ACC-19|1|G-ACC-21|2|
balamale + cremon (alb) - oscilo GEVISS|GEVISS|toate|alb|0|0|250|1500|250|2500|0|2|-1
G-ACC-18|1|
balamale + cremon (alb) - oscilo ROTO|ROTO NT|toate|alb|0|0|250|1500|250|2500|0|2|-1
G-ACC-18|1|
balamale + cremon (alb) - oscilo Vorne|Vorne|toate|alb|0|0|250|1500|250|2500|0|2|-1
G-ACC-18|1|KP121|1|
balamale + cremon (alb) - oscilo ENDOW|ENDOW|toate|alb|0|0|250|1500|250|2500|0|2|-1
G-ACC-18|1|KP121|1|
balamale + cremon (laminat) - oscilo GEVISS|GEVISS|toate|laminat|0|0|250|1500|250|2500|0|2|-1
G-ACC-19|1|
balamale + cremon (laminat) - oscilo ROTO|ROTO NT|toate|laminat|0|0|250|1500|250|2500|0|2|-1
G-ACC-19|1|
balamale + cremon (laminat) - oscilo Vorne|Vorne|toate|laminat|0|0|250|1500|250|2500|0|2|-1
G-ACC-19|1|KP121|1|
balamale + cremon (laminat) - oscilo ENDOW|ENDOW|toate|laminat|0|0|250|1500|250|2500|0|2|-1
G-ACC-19|1|KP121|1|
fara maner + set balamale (alb) - GEVISS|GEVISS|toate|alb|0|0|0|0|0|0|0|0|-1

fara maner + set balamale (alb) - ROTO|ROTO NT|toate|alb|0|0|0|0|0|0|0|0|-1

set capace alb - Vorne|Vorne|toate|alb|0|0|0|0|0|0|0|0|-1
KP121|1|
set capace alb - ENDOW|ENDOW|toate|alb|0|0|0|0|0|0|0|0|-1
KP121|1|
fara maner + set balamale (laminat) - GEVISS|GEVISS|toate|laminat|0|0|0|0|0|0|0|0|-1

fara maner + set balamale (laminat) - ROTO|ROTO NT|toate|laminat|0|0|0|0|0|0|0|0|-1

set capace (laminat) - Vorne|Vorne|toate|laminat|0|0|0|0|0|0|0|0|-1
KP121|1|
set capace (laminat) - ENDOW|ENDOW|toate|laminat|0|0|0|0|0|0|0|0|-1
KP121|1|
maner usa + balamale elephant (alb) - GEVISS|GEVISS|toate|alb|0|0|350|1200|1500|2500|1|1|-1
G-ACC-24|1|G-ACC-26|3|
maner usa + balamale elephant (alb) - ROTO|ROTO NT|toate|alb|0|0|350|1200|1500|2500|1|1|-1
G-ACC-24|1|G-ACC-26|3|
maner usa + balamale elephant (alb) - Vorne|Vorne|toate|alb|0|0|350|1200|1500|2500|1|1|-1
G-ACC-26|3|G-ACC-24|1|
maner usa + balamale elephant (alb) - ENDOW|ENDOW|toate|alb|0|0|350|1200|1500|2500|1|1|-1
G-ACC-26|3|BTC90|1|G-ACC-11|1|G-ACC-24|1|
maner usa + balamale elephant (laminat) - GEVISS|GEVISS|toate|laminat|0|0|350|1200|1500|2500|1|1|-1
G-ACC-25|1|G-ACC-27|3|
maner usa + balamale elephant (laminat) - ROTO|ROTO NT|toate|laminat|0|0|350|1200|1500|2500|1|1|-1
G-ACC-27|3|G-ACC-25|1|
maner usa + balamale elephant (laminat) - Vorne|Vorne|toate|laminat|0|0|350|1200|1500|2500|1|1|-1
G-ACC-25|1|G-ACC-27|3|
maner usa + balamale elephant (laminat) - ENDOW|ENDOW|toate|laminat|0|0|350|1200|1500|2500|1|1|-1
G-ACC-25|1|G-ACC-11|1|BTC90|1|G-ACC-27|3|
maner usa interior (alb) - GEVISS|GEVISS|toate|alb|0|0|350|1200|1500|2500|2|1|-1
G-ACC-24|1|
maner usa interior (alb) - ROTO|ROTO NT|toate|alb|0|0|350|1200|1500|2500|2|1|-1
G-ACC-24|1|
maner usa interior (alb) - Vorne|Vorne|toate|alb|0|0|350|1200|1500|2500|2|1|-1
G-ACC-24|1|
maner usa interior (alb) - ENDOW|ENDOW|toate|alb|0|0|350|1200|1500|2500|2|1|-1
G-ACC-24|1|
maner usa interior (laminat) - GEVISS|GEVISS|toate|laminat|0|0|350|1200|1500|2500|2|1|-1
G-ACC-25|1|
maner usa interior (laminat) - ROTO|ROTO NT|toate|laminat|0|0|350|1200|1500|2500|2|1|-1
G-ACC-25|1|
maner usa interior (laminat) - Vorne|Vorne|toate|laminat|0|0|350|1200|1500|2500|2|1|-1
G-ACC-25|1|
maner usa interior (laminat) - ENDOW|ENDOW|toate|laminat|0|0|350|1200|1500|2500|2|1|-1
G-ACC-25|1|
usa fara maner + balamale elefant (alb) - GEVISS|GEVISS|toate|alb|0|0|350|1200|1500|2500|1|0|-1
G-ACC-26|3|
usa fara maner + balamale elefant (alb) - ROTO|ROTO NT|toate|alb|0|0|350|1200|1500|2500|1|0|-1
G-ACC-26|3|
usa fara maner + balamale elefant (alb) - Vorne|Vorne|toate|alb|0|0|350|1200|1500|2500|1|0|-1
G-ACC-26|3|G-ACC-1|2|
usa fara maner + balamale elefant (alb) - ENDOW|ENDOW|toate|alb|0|0|350|1200|1500|2500|1|0|-1
G-ACC-26|3|10015|2|G-ACC-1|2|
usa fara maner + balamale elefant (laminat) - GEVISS|GEVISS|toate|laminat|0|0|350|1200|1500|2500|1|0|-1
G-ACC-27|3|
usa fara maner + balamale elefant (laminat) - ROTO|ROTO NT|toate|laminat|0|0|350|1200|1500|2500|1|0|-1
G-ACC-27|3|
usa fara maner + balamale elefant (laminat) - Vorne|Vorne|toate|laminat|0|0|350|1200|1500|2500|1|0|-1
G-ACC-27|3|G-ACC-1|2|
usa fara maner + balamale elefant (laminat) - ENDOW|ENDOW|toate|laminat|0|0|350|1200|1500|2500|1|0|-1
G-ACC-27|3|10015|2|G-ACC-1|2|
usa fara maner interior + balamale (alb) - GEVISS|GEVISS|toate|alb|0|0|350|1200|1500|2500|2|0|-1

usa fara maner interior + balamale (alb) - ROTO|ROTO NT|toate|alb|0|0|350|1200|1500|2500|2|0|-1

usa fara maner interior + set capace (alb) - Vorne|Vorne|toate|alb|0|0|350|1200|1500|2500|2|0|-1
KP121|1|10015|2|KP12111|1|G-ACC-1|2|
usa fara maner interior + set capace (alb) - ENDOW|ENDOW|toate|alb|0|0|350|1200|1500|2500|2|0|-1
KP121|1|10015|2|G-ACC-1|2|10006|8|
usa fara maner interior + balamale (laminat) - GEVISS|GEVISS|toate|laminat|0|0|350|1200|1500|2500|2|0|-1

usa fara maner interior + balamale (laminat) - ROTO|ROTO NT|toate|laminat|0|0|350|1200|1500|2500|2|0|-1

usa fara maner interior + set capace (laminat) - Vorne|Vorne|toate|laminat|0|0|350|1200|1500|2500|2|0|-1
KP121|1|G-ACC-1|2|KP12111|1|
usa fara maner interior + set capace (laminat) - ENDOW|ENDOW|toate|laminat|0|0|350|1200|1500|2500|2|0|-1
KP121|1|10015|2|G-ACC-1|2|10006|8|
usa fara maner balcon + set balamale (alb) - GEVISS|GEVISS|toate|alb|0|0|350|1200|1500|2500|3|0|-1

usa fara maner balcon + set balamale (alb) - ROTO|ROTO NT|toate|alb|0|0|350|1200|1500|2500|3|0|-1

usa fara maner balcon + set capace (alb) - Vorne|Vorne|toate|alb|0|0|350|1200|1500|2500|3|0|-1
KP121|1|10015|1|10015|1|G-ACC-1|2|KP12111|1|
usa fara maner balcon + set capace (alb) - ENDOW|ENDOW|toate|alb|0|0|350|1200|1500|2500|3|0|-1
KP121|1|10015|2|G-ACC-1|2|10006|8|
usa fara maner balcon + set balamale (laminat) - GEVISS|GEVISS|toate|laminat|0|0|350|1200|1500|2500|3|0|-1

usa fara maner balcon + set balamale (laminat) - ROTO|ROTO NT|toate|laminat|0|0|350|1200|1500|2500|3|0|-1

usa fara maner balcon + set capace (laminat) - Vorne|Vorne|toate|laminat|0|0|350|1200|1500|2500|3|0|-1
KP121|1|KP12111|1|G-ACC-1|2|
usa fara maner balcon + set capace (laminat) - ENDOW|ENDOW|toate|laminat|0|0|350|1200|1500|2500|3|0|-1
KP121|1|10006|8|10015|2|G-ACC-1|2|
maner fer/usa balcon (alb) + maner "C" - GEVISS|GEVISS|toate|alb|0|0|350|1200|1500|2500|3|1|-1
G-ACC-18|1|G-ACC-30|1|
maner fer/usa balcon (alb) + maner "C" - ROTO|ROTO NT|toate|alb|0|0|350|1200|1500|2500|3|1|-1
G-ACC-18|1|G-ACC-30|1|
cremon usa balcon (alb) + maner D + set capace - Vorne|Vorne|toate|alb|0|0|350|1200|1500|2500|3|1|-1
KP121|1|KP12111|1|10016|1|G-ACC-18|1|
cremon usa balcon (alb) + maner D + set capace - ENDOW|ENDOW|toate|alb|0|0|350|1200|1500|2500|3|1|-1
KP121|1|KP12111|1|10016|1|G-ACC-18|1|
maner fer/usa balcon (laminat) + maner "C" - GEVISS|GEVISS|toate|laminat|0|0|350|1200|1500|2500|3|1|-1
G-ACC-19|1|G-ACC-30|1|
maner fer/usa balcon (laminat) + maner "C" - ROTO|ROTO NT|toate|laminat|0|0|350|1200|1500|2500|3|1|-1
G-ACC-19|1|G-ACC-30|1|
cremon usa balcon (laminat) + maner D + set capace - Vorne|Vorne|toate|laminat|0|0|350|1200|1500|2500|3|1|-1
KP121|1|KP12111|1|10016|1|G-ACC-19|1|
cremon usa balcon (laminat) + maner D + set capace - ENDOW|ENDOW|toate|laminat|0|0|350|1200|1500|2500|3|1|-1
KP121|1|KP12111|1|10016|1|G-ACC-19|1|
