Version:5.2.4
Bagheta GT - 24mm alb|24mm|toate|alb|0|0|0|0|0|0|
Kom608|0|
Bagheta GT - 24mm colorat|24mm|toate|colorat|0|0|0|0|0|0|
Kom608c|0|
Bagheta GT - 20mm alb|20mm|toate|alb|0|0|0|0|0|0|
Kom607|0|
Bagheta GT - 20mm colorat|20mm|toate|colorat|0|0|0|0|0|0|
Kom607c|0|
Bagheta GT ornament - 20mm alb|20mm|toate|alb|0|0|0|0|0|0|
Kom618|0|
Bagheta GT ornament - 20mm colorat|20mm|toate|colorat|0|0|0|0|0|0|
Kom618c|0|
Bagheta GS 6 mm -alb|6mm|toate|alb|0|0|0|0|0|0|
Kom617|0|
Bagheta GS 6 mm -colorat|6mm|toate|colorat|0|0|0|0|0|0|
Kom617c|0|
Bagheta GS 4 mm -alb|4mm|toate|alb|0|0|0|0|0|0|
Kom617|0|
Bagheta GS 4 mm - colorat|4mm|toate|colorat|0|0|0|0|0|0|
Kom617c|0|
